[
    {
        "system_idx": 0,
        "system_type": "ac",
        "voltage": 420000.0,
        "current": 960.0,
        "lines": [
          {
            "line_type": "ac_r",
            "line_x": -7.5,
            "line_y": 11.3,
            "con_radius": 0.0138,
            "num_con": 2,
            "bundle_radius": 0.2,
            "con_angle_offset": 0.0
          },
          {
            "line_type": "ac_s",
            "line_x": 9.5,
            "line_y": 20.3,
            "con_radius": 0.0138,
            "num_con": 2,
            "bundle_radius": 0.2,
            "con_angle_offset": 0.0
          },
          {
            "line_type": "ac_t",
            "line_x": -6.0,
            "line_y": 29.8,
            "con_radius": 0.0138,
            "num_con": 2,
            "bundle_radius": 0.2,
            "con_angle_offset": 0.0
          }
        ]
    },
    {
        "system_idx": 1,
        "system_type": "dc",
        "voltage": 400000.0,
        "current": 1000.0,
        "lines": [
          {
            "line_type": "dc_pos",
            "line_x": 7.5,
            "line_y": 11.3,
            "con_radius": 0.0138,
            "num_con": 2,
            "bundle_radius": 0.2,
            "con_angle_offset": 0.0
          },
          {
            "line_type": "dc_neg",
            "line_x": -9.5,
            "line_y": 20.3,
            "con_radius": 0.0138,
            "num_con": 2,
            "bundle_radius": 0.2,
            "con_angle_offset": 0.0
          },
          {
            "line_type": "dc_neut",
            "line_x": 6.0,
            "line_y": 29.8,
            "con_radius": 0.0138,
            "num_con": 2,
            "bundle_radius": 0.2,
            "con_angle_offset": 0.0
          }
        ]
    },
    {
        "system_idx": 2,
        "system_type": "gnd",
        "voltage": 0.0,
        "current": 0.0,
        "lines": [
            {
                "line_type": "gnd",
                "line_x": 0.0,
                "line_y": 35.8,
                "con_radius": 0.0138,
                "num_con": 1,
                "bundle_radius": 0.0,
                "con_angle_offset": 0.0
            }
        ]
    }
]
