AC

R1_X;R1_Y;S1_X;S1_Y;T1_X;T1_Y;R2_X;R2_Y;S2_X;S2_Y;T2_X;T2_Y;GND_X;GND_Y;E_dc_max;E_ac_max;E_sum_max
9.5;20.3;7.5;11.3;6.0;29.8;-7.5;11.3;-6.0;29.8;-9.5;20.3;0.0;35.8;0.0;5.20343301329;5.20343301329
9.5;20.3;-6.0;29.8;6.0;29.8;7.5;11.3;-7.5;11.3;-9.5;20.3;0.0;35.8;0.0;7.12527599397;7.12527599397
9.5;20.3;-6.0;29.8;6.0;29.8;-7.5;11.3;-9.5;20.3;7.5;11.3;0.0;35.8;0.0;5.57893928979;5.57893928979
9.5;20.3;-6.0;29.8;6.0;29.8;7.5;11.3;-9.5;20.3;-7.5;11.3;0.0;35.8;0.0;7.15917834242;7.15917834242
9.5;20.3;7.5;11.3;6.0;29.8;-9.5;20.3;-6.0;29.8;-7.5;11.3;0.0;35.8;0.0;4.87539469899;4.87539469899
9.5;20.3;-6.0;29.8;6.0;29.8;-9.5;20.3;-7.5;11.3;7.5;11.3;0.0;35.8;0.0;5.33428267232;5.33428267232
7.5;11.3;-6.0;29.8;6.0;29.8;-7.5;11.3;-9.5;20.3;9.5;20.3;0.0;35.8;0.0;6.57772767734;6.57772767734
7.5;11.3;9.5;20.3;6.0;29.8;-7.5;11.3;-6.0;29.8;-9.5;20.3;0.0;35.8;0.0;6.53922675746;6.53922675746
9.5;20.3;7.5;11.3;6.0;29.8;-7.5;11.3;-9.5;20.3;-6.0;29.8;0.0;35.8;0.0;5.5233798275;5.5233798275
9.5;20.3;-9.5;20.3;6.0;29.8;7.5;11.3;-7.5;11.3;-6.0;29.8;0.0;35.8;0.0;7.14356854956;7.14356854956
9.5;20.3;7.5;11.3;6.0;29.8;-9.5;20.3;-7.5;11.3;-6.0;29.8;0.0;35.8;0.0;6.62619456242;6.62619456242

DC

+1_X;+1_Y;-1_X;-1_Y;N1_X;N1_Y;+2_X;+2_Y;-2_X;-2_Y;N2_X;N2_Y;GND_X;GND_Y;E_dc_max;E_ac_max;E_sum_max
9.5;20.3;7.5;11.3;6.0;29.8;-7.5;11.3;-6.0;29.8;-9.5;20.3;8.82930618387;0.0;8.82930618387
9.5;20.3;-7.5;11.3;6.0;29.8;7.5;11.3;-6.0;29.8;-9.5;20.3;11.5861332396;0.0;11.5861332396
9.5;20.3;-9.5;20.3;6.0;29.8;-7.5;11.3;-6.0;29.8;7.5;11.3;8.12959825468;0.0;8.12959825468
9.5;20.3;-9.5;20.3;6.0;29.8;7.5;11.3;-6.0;29.8;-7.5;11.3;12.4536308081;0.0;12.4536308081
9.5;20.3;7.5;11.3;6.0;29.8;-9.5;20.3;-6.0;29.8;-7.5;11.3;7.59407312823;0.0;7.59407312823
9.5;20.3;-7.5;11.3;6.0;29.8;-9.5;20.3;-6.0;29.8;7.5;11.3;8.01593692897;0.0;8.01593692897
-9.5;20.3;7.5;11.3;6.0;29.8;-7.5;11.3;-6.0;29.8;9.5;20.3;11.0587753466;0.0;11.0587753466
-9.5;20.3;-7.5;11.3;6.0;29.8;7.5;11.3;-6.0;29.8;9.5;20.3;9.30738591125;0.0;9.30738591125
7.5;11.3;-9.5;20.3;6.0;29.8;-7.5;11.3;-6.0;29.8;9.5;20.3;11.6759597422;0.0;11.6759597422
7.5;11.3;9.5;20.3;6.0;29.8;-7.5;11.3;-6.0;29.8;-9.5;20.3;11.3325957415;0.0;11.3325957415
-9.5;20.3;9.5;20.3;6.0;29.8;-7.5;11.3;-6.0;29.8;7.5;11.3;11.9728844098;0.0;11.9728844098
-9.5;20.3;9.5;20.3;6.0;29.8;7.5;11.3;-6.0;29.8;-7.5;11.3;8.49206051357;0.0;8.49206051357
9.5;20.3;7.5;11.3;6.0;29.8;-7.5;11.3;-9.5;20.3;-6.0;29.8;6.83499023654;0.0;6.83499023654
9.5;20.3;-7.5;11.3;6.0;29.8;7.5;11.3;-9.5;20.3;-6.0;29.8;11.3297148407;0.0;11.3297148407
9.5;20.3;7.5;11.3;6.0;29.8;-9.5;20.3;-7.5;11.3;-6.0;29.8;9.57463742311;0.0;9.57463742311
-6.0;29.8;6.0;29.8;-9.5;20.3;-7.5;11.3;7.5;11.3;9.5;20.3;9.50268280127;0.0;9.50268280127
-6.0;29.8;6.0;29.8;-9.5;20.3;7.5;11.3;-7.5;11.3;9.5;20.3;8.4993216653;0.0;8.4993216653
-6.0;29.8;6.0;29.8;9.5;20.3;-7.5;11.3;-9.5;20.3;7.5;11.3;8.42748637292;0.0;8.42748637292
7.5;11.3;6.0;29.8;9.5;20.3;-6.0;29.8;-9.5;20.3;-7.5;11.3;9.53368826199;0.0;9.53368826199
-6.0;29.8;6.0;29.8;9.5;20.3;-9.5;20.3;7.5;11.3;-7.5;11.3;10.4368637833;0.0;10.4368637833
-6.0;29.8;6.0;29.8;9.5;20.3;-9.5;20.3;-7.5;11.3;7.5;11.3;7.64051700965;0.0;7.64051700965
-6.0;29.8;6.0;29.8;7.5;11.3;-9.5;20.3;9.5;20.3;-7.5;11.3;3.88274365183;0.0;3.88274365183
9.5;20.3;6.0;29.8;7.5;11.3;-6.0;29.8;-9.5;20.3;-7.5;11.3;2.21644247298;0.0;2.21644247298
9.5;20.3;6.0;29.8;7.5;11.3;-7.5;11.3;-6.0;29.8;-9.5;20.3;10.3633268669;0.0;10.3633268669
9.5;20.3;6.0;29.8;-9.5;20.3;7.5;11.3;-6.0;29.8;-7.5;11.3;12.3236392739;0.0;12.3236392739
9.5;20.3;6.0;29.8;7.5;11.3;-9.5;20.3;-6.0;29.8;-7.5;11.3;2.36876561918;0.0;2.36876561918
7.5;11.3;6.0;29.8;9.5;20.3;-7.5;11.3;-6.0;29.8;-9.5;20.3;11.9089816991;0.0;11.9089816991

Hybrid

R1_X;R1_Y;S1_X;S1_Y;T1_X;T1_Y;+2_X;+2_Y;-2_X;-2_Y;N2_X;N2_Y;GND_X;GND_Y;E_dc_max;E_ac_max;E_sum_max
-7.5;11.3;7.5;11.3;-9.5;20.3;9.5;20.3;-6.0;29.8;6.0;29.8;0.0;35.8;3.0295720725209048;5.7614398848477615;6.2890249639009967
-7.5;11.3;7.5;11.3;9.5;20.3;-9.5;20.3;-6.0;29.8;6.0;29.8;0.0;35.8;2.2566434773402011;5.7614398848477357;6.1061179842697237
-7.5;11.3;-9.5;20.3;9.5;20.3;7.5;11.3;-6.0;29.8;6.0;29.8;0.0;35.8;10.357909112076161;5.5387551654338472;10.413487977663966
7.5;11.3;-9.5;20.3;9.5;20.3;-7.5;11.3;-6.0;29.8;6.0;29.8;0.0;35.8;9.9334901934100923;5.5387551654338498;9.9895463305518764
-7.5;11.3;7.5;11.3;-6.0;29.8;9.5;20.3;-9.5;20.3;6.0;29.8;0.0;35.8;3.0335932824586318;5.8860645444565556;6.2747360397780323
-7.5;11.3;-9.5;20.3;-6.0;29.8;9.5;20.3;7.5;11.3;6.0;29.8;0.0;35.8;8.0264900934752745;5.5329637498713522;8.0885179921770831
7.5;11.3;-9.5;20.3;-6.0;29.8;9.5;20.3;-7.5;11.3;6.0;29.8;0.0;35.8;9.9777643402998546;6.1652616966635208;10.034854349427707
-7.5;11.3;9.5;20.3;-6.0;29.8;7.5;11.3;-9.5;20.3;6.0;29.8;0.0;35.8;9.9777643402998475;6.0294968579151895;10.062993298827823
7.5;11.3;9.5;20.3;-6.0;29.8;-7.5;11.3;-9.5;20.3;6.0;29.8;0.0;35.8;8.0264900934752639;5.6996836526759136;8.0725265044793595
-9.5;20.3;9.5;20.3;-6.0;29.8;7.5;11.3;-7.5;11.3;6.0;29.8;0.0;35.8;8.994077472491611;1.835578923608068;9.1138578241245689
-7.5;11.3;7.5;11.3;-9.5;20.3;-6.0;29.8;6.0;29.8;9.5;20.3;0.0;35.8;0.91594728785442348;5.761439884847757;5.7813607445838189
-7.5;11.3;-9.5;20.3;9.5;20.3;-6.0;29.8;6.0;29.8;7.5;11.3;0.0;35.8;0.91594728785442303;5.5387551654338472;5.5559607232419017
-7.5;11.3;7.5;11.3;-6.0;29.8;9.5;20.3;6.0;29.8;-9.5;20.3;0.0;35.8;2.2566434773401971;5.8860645444565529;6.2177355619439965
-7.5;11.3;-9.5;20.3;-6.0;29.8;9.5;20.3;6.0;29.8;7.5;11.3;0.0;35.8;2.2566434773402024;5.5329637498713522;5.5499433896003705
7.5;11.3;-9.5;20.3;-6.0;29.8;9.5;20.3;6.0;29.8;-7.5;11.3;0.0;35.8;2.2566434773402051;6.1652616966635279;6.4735900761048901
-7.5;11.3;7.5;11.3;-6.0;29.8;-9.5;20.3;6.0;29.8;9.5;20.3;0.0;35.8;3.0295720725209128;5.8860645444565556;6.235916485105518
-7.5;11.3;-9.5;20.3;-6.0;29.8;7.5;11.3;6.0;29.8;9.5;20.3;0.0;35.8;9.9334901934101101;5.5329637498713478;9.9758904048081671
7.5;11.3;-9.5;20.3;-6.0;29.8;-7.5;11.3;6.0;29.8;9.5;20.3;0.0;35.8;10.357909112076138;6.1652616966635261;10.411798752059932
-7.5;11.3;9.5;20.3;-6.0;29.8;7.5;11.3;6.0;29.8;-9.5;20.3;0.0;35.8;9.933490193410087;6.0294968579151904;10.016484556456374
7.5;11.3;9.5;20.3;-6.0;29.8;-7.5;11.3;6.0;29.8;-9.5;20.3;0.0;35.8;10.357909112076136;5.6996836526759145;10.383013693967776
-7.5;11.3;9.5;20.3;-6.0;29.8;-9.5;20.3;6.0;29.8;7.5;11.3;0.0;35.8;3.0295720725209141;6.0294968579151966;6.4983584377140113
7.5;11.3;9.5;20.3;-6.0;29.8;-9.5;20.3;6.0;29.8;-7.5;11.3;0.0;35.8;3.0295720725209168;5.6996836526759118;5.7013288717467505
-9.5;20.3;9.5;20.3;-6.0;29.8;7.5;11.3;6.0;29.8;-7.5;11.3;0.0;35.8;9.9334901934101012;1.8355789236080644;10.021169544001477
-9.5;20.3;9.5;20.3;-6.0;29.8;-7.5;11.3;6.0;29.8;7.5;11.3;0.0;35.8;10.357909112076142;1.8355789236080671;10.427102679344626
-7.5;11.3;-6.0;29.8;6.0;29.8;9.5;20.3;7.5;11.3;-9.5;20.3;0.0;35.8;8.0264900934752799;6.1535351958018607;8.0911925803082934
7.5;11.3;-6.0;29.8;6.0;29.8;9.5;20.3;-7.5;11.3;-9.5;20.3;0.0;35.8;9.9777643402998617;6.1535351958018545;10.010638087944541
-7.5;11.3;-6.0;29.8;6.0;29.8;9.5;20.3;-9.5;20.3;7.5;11.3;0.0;35.8;3.0335932824586296;6.1535351958018643;6.4808422048098944
-9.5;20.3;-6.0;29.8;6.0;29.8;9.5;20.3;7.5;11.3;-7.5;11.3;0.0;35.8;8.0264900934752799;1.6494418718065766;8.0309551265207517
-9.5;20.3;-6.0;29.8;6.0;29.8;9.5;20.3;-7.5;11.3;7.5;11.3;0.0;35.8;9.9777643402998617;1.6494418718065793;10.070374095039217
-9.5;20.3;-6.0;29.8;6.0;29.8;-7.5;11.3;7.5;11.3;9.5;20.3;0.0;35.8;8.9940774724916182;1.6494418718065829;9.1061807247818081

AC

B_dc_max;B_ac_max;B_sum_max
0.0;12.713802221555435;12.713802221555435
0.0;21.18071820194979;21.18071820194979
0.0;16.15389633030384;16.15389633030384
0.0;20.355331030103184;20.355331030103184
0.0;13.30040366951432;13.30040366951432
0.0;17.84696196630115;17.84696196630115
0.0;14.754478224027048;14.754478224027048
0.0;12.838818494558904;12.838818494558904
0.0;11.62093656711491;11.62093656711491
0.0;23.389315091189445;23.389315091189445
0.0;12.558674055271888;12.558674055271888

DC

B_dc_max;B_ac_max;B_sum_max
13.489026822715035;0.0;13.489026822715035
24.130890955214362;0.0;24.130890955214362
10.521312345663102;0.0;10.521312345663102
20.908317088185584;0.0;20.908317088185584
9.302324578758167;0.0;9.302324578758167
11.537157595844961;0.0;11.537157595844961
21.401742235580624;0.0;21.401742235580624
16.07474731349047;0.0;16.07474731349047
14.161257177665604;0.0;14.161257177665604
13.425469596076281;0.0;13.425469596076281
18.568576783517496;0.0;18.568576783517496
10.132263435311364;0.0;10.132263435311364
10.262005503762122;0.0;10.262005503762122
26.68276391474758;0.0;26.68276391474758
10.906721186936986;0.0;10.906721186936986
21.245177393968255;0.0;21.245177393968255
15.699592024541444;0.0;15.699592024541444
10.570345166771434;0.0;10.570345166771434
12.85628443507611;0.0;12.85628443507611
17.44439552819978;0.0;17.44439552819978
8.94818960495002;0.0;8.94818960495002
10.983171890206139;0.0;10.983171890206139
5.437586520779321;0.0;5.437586520779321
12.866909526327845;0.0;12.866909526327845
17.65204191838414;0.0;17.65204191838414
3.7256873948191602;0.0;3.7256873948191602
14.484450462790415;0.0;14.484450462790415

Hybrid

B_dc_max;B_ac_max;B_sum_max
5.950032543782888;16.433996122673747;17.44271670424902
3.6235758537198164;16.433996122673754;16.765967995411152
14.098799174053568;12.993436351719009;17.4134309153477
12.491892148282652;12.993436351719003;15.907537803980356
8.210379205492728;16.47379781394931;18.405025416176507
9.230703394077139;10.821060618179532;11.55688753570563
15.034979715355467;14.07597850673093;19.004808762278913
15.03497971535546;13.614708582496034;18.670812893083706
9.230703394077128;12.084667023877595;12.837582715525087
18.472384709254847;7.143968948728457;19.80444199880529
2.772792684713408;16.433996122673747;16.665448011204315
2.772792684713408;12.993436351719009;13.268866704355514
3.6235758537198133;16.47379781394931;16.795962836939633
3.6235758537198133;10.821060618179532;11.100874844241364
3.6235758537198133;14.07597850673093;14.519478235294201
5.95003254378289;16.47379781394931;17.442478931480313
12.491892148282657;10.821060618179532;13.705503667183196
14.098799174053577;14.07597850673093;17.803659358960378
12.491892148282657;13.614708582496034;15.991612031646724
14.098799174053577;12.084667023877595;16.257364056422556
5.95003254378289;13.614708582496034;14.85628949441793
5.95003254378289;12.084667023877595;13.093600996283113
12.491892148282657;7.143968948728457;14.21855286116397
14.098799174053577;7.143968948728457;15.650385394286577
9.230703394077139;12.890597625392788;13.59294111741063
15.034979715355467;12.89059762539278;17.73188440375599
8.210379205492728;12.890597625392788;15.055889897294284
9.230703394077139;5.048141088609672;10.102248775900376
15.034979715355467;5.048141088609672;15.858374547844322
18.472384709254847;5.048141088609672;19.099109679830406
