filename;2;3
ac_1
ac_2
ac_3
ac_4
ac_5
ac_6
ac_7
ac_8
ac_9
ac_10
ac_11
dc_1;1.2640434258302267;0.47618203145786536
dc_2;1.1109005741413567;0.41369933519291224
dc_3;1.2521136702587974;0.4716056751255674
dc_4;0.9844199395820178;0.37178075058342075
dc_5;1.2462485739482216;0.4658998600943742
dc_6;1.2906217989296855;0.4890686966358044
dc_7;1.2086228704548994;0.45504394797638814
dc_8;1.298210186910859;0.49232666949932175
dc_9;1.2353128638126656;0.4655091246616794
dc_10;1.209031796519863;0.44398898516128243
dc_11;1.1784874622089703;0.44443866386066655
dc_12;1.2258326029659947;0.45427115652480277
dc_13;1.2528413949032402;0.47149619361569056
dc_14;1.0211886407358834;0.38787727373170494
dc_15;1.2192397820109617;0.4593030926881329
dc_16;1.1093076969424145;0.43001764860120595
dc_17;1.1535473009640993;0.443881037003739
dc_18;1.284655180066562;0.4848011930376815
dc_19;1.2801828302555804;0.4790777293531428
dc_20;1.1418104032389091;0.4435008948039321
dc_21;1.262321655749867;0.47477676426441756
dc_22;1.0415341554649933;0.40239301531828825
dc_23;1.2466992773199745;0.4715056702866714
dc_24;1.2237471300501201;0.45991756002847983
dc_25;1.1239610178769364;0.4142444750733557
dc_26;1.2109151890851206;0.4557277947081457
dc_27;1.0756560496343592;0.4107472090736119
hybrid_1;1.0713741107902024;0.4113663635537669
hybrid_2;1.1976370658024826;0.44528716495880505
hybrid_3;1.079140454426626;0.41302595355415544
hybrid_4;1.103044501936427;0.42001484867632094
hybrid_5;1.0612882737204636;0.40796481869462875
hybrid_6;1.2360405884571082;0.4600855083095667
hybrid_7;1.092360500765659;0.41380881670274544
hybrid_8;1.092360500765659;0.418840305338832
hybrid_9;1.2360405884570647;0.4653996431518899
hybrid_10;1.1154539883773686;0.4291224767023814
hybrid_11;1.1308219175873238;0.4369493428024434
hybrid_12;1.1308219175873238;0.43694934280245795
hybrid_13;1.197637065802439;0.45232624984894937
hybrid_14;1.197637065802468;0.45232624984894937
hybrid_15;1.197637065802468;0.45232624984894937
hybrid_16;1.071374110790246;0.40596472242419257
hybrid_17;1.103044501936427;0.42034087314357743
hybrid_18;1.079140454426597;0.4106377275638079
hybrid_19;1.103044501936398;0.42034087314359203
hybrid_20;1.0791404544266117;0.41063772756383693
hybrid_21;1.0713741107902315;0.40596472242420717
hybrid_22;1.0713741107902024;0.40596472242420717
hybrid_23;1.1030445019364414;0.42034087314359203
hybrid_24;1.0791404544266117;0.41063772756377875
hybrid_25;1.2360405884570937;0.46008550830953754
hybrid_26;1.0923605007656443;0.41380881670273084
hybrid_27;1.0612882737204636;0.40796481869461426
hybrid_28;1.2360405884571228;0.4600855083095957
hybrid_29;1.092360500765659;0.41380881670273084
hybrid_30;1.115453988377383;0.42912247670242504
bpa_ostrander_1
bpa_ostrander_2
bpa_ostrander_3
apple_grove_a
apple_grove_b
apple_grove_c
bpa_lyons_8
bpa_lyons_7
project_uhv_8
project_uhv_12
bpa_marion_alvey_lane
bpa_mcnary_ross
bpa_oregon_city_keeler
bpa_an_boot
hydro_quebec_1
hydro_quebec_2
puget_power
square_butte;1.9553921901571565;0.5941216277744504
dalles_2;1.2465180413441044;0.5073007860918151
dalles_4;1.0470095345057586;0.36223046945239185
ireq_4;1.1805096664064718;0.4179113467006168
ireq_6;1.1682823644161948;0.40981510084504
ireq_8;1.2494319103319818;0.43539455699988283
epri_a;1.6126619834191631;0.49227813208209115
epri_b;1.415144414820429;0.42379836671759835
epri_c;1.4443909333728835;0.4311080420885235
epri_d;1.415144414820464;0.4237983667175751
eu_1;1.2154169452998205;0.45928720431715486
eu_2;1.1344514750759;0.43947496467162855
eu_3;1.1344514750759234;0.439474964671582
