[
    {
        "system_idx": 0,
        "system_type": "ac",
        "voltage": 408700.0,
        "current": 1000.0,
        "lines": [
            {
                "line_type": "ac_r",
                "line_x": -3.075,
                "line_y": 21.3221,
                "con_radius": 0.0381,
                "num_con": 1,
                "bundle_radius": 0.0,
                "con_angle_offset": 0.0
            },
            {
                "line_type": "ac_s",
                "line_x": -6.15,
                "line_y": 15.9961,
                "con_radius": 0.0381,
                "num_con": 1,
                "bundle_radius": 0.0,
                "con_angle_offset": 0.0
            },
            {
                "line_type": "ac_t",
                "line_x": -3.075,
                "line_y": 10.67,
                "con_radius": 0.0381,
                "num_con": 1,
                "bundle_radius": 0.0,
                "con_angle_offset": 0.0
            }
        ]
    },
    {
        "system_idx": 1,
        "system_type": "ac",
        "voltage": 408700.0,
        "current": 1000.0,
        "lines": [
            {
                "line_type": "ac_r",
                "line_x": 3.075,
                "line_y": 21.3221,
                "con_radius": 0.0381,
                "num_con": 1,
                "bundle_radius": 0.0,
                "con_angle_offset": 0.0
            },
            {
                "line_type": "ac_s",
                "line_x": 6.15,
                "line_y": 15.9961,
                "con_radius": 0.0381,
                "num_con": 1,
                "bundle_radius": 0.0,
                "con_angle_offset": 0.0
            },
            {
                "line_type": "ac_t",
                "line_x": 3.075,
                "line_y": 10.67,
                "con_radius": 0.0381,
                "num_con": 1,
                "bundle_radius": 0.0,
                "con_angle_offset": 0.0
            }
        ]
    },
    {
        "system_idx": 2,
        "system_type": "dc_bipol",
        "voltage": 450000.0,
        "current": 1000.0,
        "lines": [
            {
                "line_type": "dc_pos",
                "line_x": -26.51,
                "line_y": 9.15,
                "con_radius": 0.010199999999999999,
                "num_con": 1,
                "bundle_radius": 0.0,
                "con_angle_offset": 0.0
            },
            {
                "line_type": "dc_neg",
                "line_x": -16.15,
                "line_y": 9.15,
                "con_radius": 0.010199999999999999,
                "num_con": 1,
                "bundle_radius": 0.0,
                "con_angle_offset": 0.0
            }
        ]
    }
]