[
    {
        "system_idx": 0,
        "system_type": "gnd",
        "voltage": 0.0,
        "current": 0.0,
        "lines": [
            {
                "line_type": "gnd",
                "line_x": -3.695,
                "line_y": 36.1433,
                "con_radius": 0.0055,
                "num_con": 1,
                "bundle_radius": 0.0,
                "con_angle_offset": 0.0
            }
        ]
    },
    {
        "system_idx": 1,
        "system_type": "gnd",
        "voltage": 0.0,
        "current": 0.0,
        "lines": [
            {
                "line_type": "gnd",
                "line_x": 3.695,
                "line_y": 36.1433,
                "con_radius": 0.0055,
                "num_con": 1,
                "bundle_radius": 0.0,
                "con_angle_offset": 0.0
            }
        ]
    },
    {
        "system_idx": 2,
        "system_type": "ac",
        "voltage": 498803.60000000003,
        "current": 1000.0,
        "lines": [
            {
                "line_type": "ac_r",
                "line_x": 5.64,
                "line_y": 26.07,
                "con_radius": 0.019100000000000002,
                "num_con": 3,
                "bundle_radius": 0.264,
                "con_angle_offset": 30.0
            },
            {
                "line_type": "ac_s",
                "line_x": 5.64,
                "line_y": 14.49,
                "con_radius": 0.019100000000000002,
                "num_con": 3,
                "bundle_radius": 0.264,
                "con_angle_offset": 30.0
            },
            {
                "line_type": "ac_t",
                "line_x": 13.03,
                "line_y": 14.49,
                "con_radius": 0.019100000000000002,
                "num_con": 3,
                "bundle_radius": 0.264,
                "con_angle_offset": 30.0
            }
        ]
    },
    {
        "system_idx": 3,
        "system_type": "dc",
        "voltage": 500000.0,
        "current": 1000.0,
        "lines": [
            {
                "line_type": "dc_pos",
                "line_x": -5.64,
                "line_y": 26.07,
                "con_radius": 0.019100000000000002,
                "num_con": 3,
                "bundle_radius": 0.264,
                "con_angle_offset": 30.0
            },
            {
                "line_type": "dc_neg",
                "line_x": -13.03,
                "line_y": 14.49,
                "con_radius": 0.019100000000000002,
                "num_con": 3,
                "bundle_radius": 0.264,
                "con_angle_offset": 30.0
            },
            {
                "line_type": "dc_neut",
                "line_x": -5.64,
                "line_y": 14.49,
                "con_radius": 0.019100000000000002,
                "num_con": 3,
                "bundle_radius": 0.264,
                "con_angle_offset": 30.0
            }
        ]
    }
]
