[
    {
        "system_idx": 0,
        "system_type": "gnd",
        "voltage": 0.0,
        "current": 0.0,
        "lines": [
            {
                "line_type": "gnd",
                "line_x": 6.705,
                "line_y": 30.78,
                "con_radius": 0.0127,
                "num_con": 1,
                "bundle_radius": 0.0,
                "con_angle_offset": 0.0
            }
        ]
    },
    {
        "system_idx": 1,
        "system_type": "gnd",
        "voltage": 0.0,
        "current": 0.0,
        "lines": [
            {
                "line_type": "gnd",
                "line_x": -6.705,
                "line_y": 30.78,
                "con_radius": 0.0127,
                "num_con": 1,
                "bundle_radius": 0.0,
                "con_angle_offset": 0.0
            }
        ]
    },
    {
        "system_idx": 2,
        "system_type": "ac",
        "voltage": 345000.0,
        "current": 1000.0,
        "lines": [
            {
                "line_type": "ac_r",
                "line_x": 13.72,
                "line_y": 12.19,
                "con_radius": 0.0325,
                "num_con": 3,
                "bundle_radius": 0.26389999999999997,
                "con_angle_offset": 30.0
            },
            {
                "line_type": "ac_s",
                "line_x": 4.57,
                "line_y": 12.19,
                "con_radius": 0.0325,
                "num_con": 3,
                "bundle_radius": 0.26389999999999997,
                "con_angle_offset": 30.0
            },
            {
                "line_type": "ac_t",
                "line_x": 9.14,
                "line_y": 21.33,
                "con_radius": 0.0325,
                "num_con": 3,
                "bundle_radius": 0.26389999999999997,
                "con_angle_offset": 30.0
            }
        ]
    },
    {
        "system_idx": 3,
        "system_type": "ac",
        "voltage": 345000.0,
        "current": 1000.0,
        "lines": [
            {
                "line_type": "ac_r",
                "line_x": -9.14,
                "line_y": 21.33,
                "con_radius": 0.0325,
                "num_con": 3,
                "bundle_radius": 0.26389999999999997,
                "con_angle_offset": 30.0
            },
            {
                "line_type": "ac_s",
                "line_x": -4.57,
                "line_y": 12.19,
                "con_radius": 0.0325,
                "num_con": 3,
                "bundle_radius": 0.26389999999999997,
                "con_angle_offset": 30.0
            },
            {
                "line_type": "ac_t",
                "line_x": -13.72,
                "line_y": 12.19,
                "con_radius": 0.0325,
                "num_con": 3,
                "bundle_radius": 0.26389999999999997,
                "con_angle_offset": 30.0
            }
        ]
    }
]