[
    {
        "system_idx": 0,
        "system_type": "dc_bipol",
        "voltage": 1050000.0,
        "current": 1000.0,
        "lines": [
            {
                "line_type": "dc_pos",
                "line_x": -8.4,
                "line_y": 12.2,
                "con_radius": 0.022850000000000002,
                "num_con": 8,
                "bundle_radius": 0.26396499999999995,
                "con_angle_offset": 22.5
            },
            {
                "line_type": "dc_neg",
                "line_x": 8.4,
                "line_y": 12.2,
                "con_radius": 0.022850000000000002,
                "num_con": 8,
                "bundle_radius": 0.26396499999999995,
                "con_angle_offset": 22.5
            }
        ]
    }
]